Student-Survey-AI-in-DS_October_Final.knit
…
## With Percents
Q11_summary2 <- long_Q11 %>%
  count(Q11, sort = TRUE) %>%
  rename(Response = Q11, Frequency = n) %>%
  mutate(Relative_Freq = round(Frequency / 120*100, digits=1))

# View summary
print(Q11_summary2)

## # A tibble: 23 × 3
##    Response                                              Frequency Relative_Freq
##    <chr>                                                     <int>         <dbl>
##  1 ChatGPT                                                      23          19.2
##  2 ChatGPT ,Grammarly ,Canva or AI assisted presentatio…        18          15  
##  3 ChatGPT ,Grammarly                                           13          10.8
##  4 ChatGPT ,AI-powered visualization tools ,Grammarly ,…        11           9.2
##  5 None                                                         11           9.2
##  6 ChatGPT ,AI-powered visualization tools                       6           5  
##  7 ChatGPT ,Canva or AI assisted presentation tools              5           4.2
##  8 Grammarly                                                     4           3.3
##  9 ChatGPT ,AI-powered visualization tools ,Grammarly            3           2.5
## 10 AI-powered visualization tools ,Grammarly                     2           1.7
## # ℹ 13 more rows
…
